<svg class="icon" xmlns="http://www.w3.org/2000/svg" viewBox="0 0 36 32">
  <title>Comments</title>
  <path d="M15,0A16.94,16.94,0,0,0,4.41,3.53,11,11,0,0,0,0,12.13a10.18,10.18,0,0,0,1.5,5.31,12.49,12.49,0,0,0,4.06,4.13l0.06,0.84a4.4,4.4,0,0,1-1.06,2.78,7.87,7.87,0,0,1-2.56,2V28a19.56,19.56,0,0,0,5.53-.78,11.85,11.85,0,0,0,5.12-3.09c0.69,0.06,1.75.16,2.34,0.16a16.93,16.93,0,0,0,10.62-3.56A11.07,11.07,0,0,0,30,12.12a11.07,11.07,0,0,0-4.37-8.59A16.45,16.45,0,0,0,15,0h0ZM31.13,27.22l0.06-.72A11.42,11.42,0,0,0,34.69,23,8.7,8.7,0,0,0,36,18.41a8.89,8.89,0,0,0-1-4,11.48,11.48,0,0,0-2.69-3.25c0,0.16,0,.47,0,1a13.57,13.57,0,0,1-.34,3A13.68,13.68,0,0,1,30.94,18a14.57,14.57,0,0,1-1.66,2.44,13,13,0,0,1-2.19,2.16,17.26,17.26,0,0,1-5.53,3,20.27,20.27,0,0,1-6.5,1.09A15.08,15.08,0,0,0,23,28.81c0.38,0,1.66-.09,2-0.12a10.33,10.33,0,0,0,4.31,2.66A15.38,15.38,0,0,0,34,32V31.31a5.45,5.45,0,0,1-2.09-1.72A4,4,0,0,1,31.13,27.22Z"
    transform="translate(0 0)" />
</svg>