<svg class="icon" xmlns="http://www.w3.org/2000/svg" viewBox="0 0 32 25.19">
  <title>Folder</title>
  <path d="M13.47,7.91H31a1,1,0,0,1,1,1V29a1,1,0,0,1-1,1H1a1,1,0,0,1-1-1V8.88a1,1,0,0,1,1-1H2.41L3.53,5.66a1.65,1.65,0,0,1,1.37-.84H11a1.61,1.61,0,0,1,1.38.88Z"
    transform="translate(0 -4.81)" />
</svg>