<svg viewBox="0 0 21 20" class="icon" version="1.1" xmlns="http://www.w3.org/2000/svg" xmlns:xlink="http://www.w3.org/1999/xlink">
    <title>Hearing Aid Loop</title>
    <defs>
        <polygon id="path-1" points="0 -0.0003 19.9787 -0.0003 19.9787 19.9596 0 19.9596"></polygon>
    </defs>
    <g id="Single-accommodation" stroke="none" stroke-width="1" fill="none" fill-rule="evenodd">
        <g id="Accommodation-page-(Desktop)" transform="translate(-490.000000, -631.000000)">
            <g id="Key-facilities" transform="translate(96.000000, 560.000000)">
                <g id="Hearing-facilities" transform="translate(394.000000, 71.000000)">
                    <g id="Group-3" transform="translate(0.571429, 0.000000)">
                        <mask id="mask-2" fill="white">
                            <use xlink:href="#path-1"></use>
                        </mask>
                        <g id="Clip-2"></g>
                        <path d="M9.7457,18.2247 C9.3367,18.2247 8.7907,18.1857 8.2247,17.8347 L8.9277,16.6847 C9.2197,16.8607 9.4927,16.8607 9.7457,16.8607 L9.8627,16.8607 L9.9607,16.8607 C10.3897,16.8607 10.7397,16.7627 11.0327,16.5487 C11.3247,16.3337 11.5397,16.0027 11.6557,15.5547 C11.7537,15.1637 11.7727,14.7357 11.7927,14.3457 L11.7927,14.3267 C11.7927,14.0737 11.8117,13.7997 11.8507,13.6447 L11.8707,13.5077 L11.9487,13.3907 C12.0077,13.2737 12.1037,13.1577 12.1827,13.0397 C12.5137,12.5337 13.0197,11.7727 13.4107,11.0127 C13.8397,10.1947 14.0537,9.5117 14.0537,9.0047 C14.0537,7.8557 13.6047,6.7637 12.7867,5.9647 C11.9687,5.1457 10.8957,4.6977 9.7457,4.6977 C7.3677,4.6977 5.4377,6.6267 5.4377,9.0047 L4.0737,9.0047 C4.0737,5.8677 6.6277,3.3327 9.7457,3.3327 C11.2667,3.3327 12.6887,3.9177 13.7617,4.9907 C14.8337,6.0617 15.4177,7.4847 15.4177,9.0047 C15.4177,9.7457 15.1447,10.6037 14.6187,11.6567 C14.1897,12.4547 13.6637,13.2537 13.3127,13.7807 C13.2737,13.8587 13.2157,13.9367 13.1767,13.9957 C13.1767,14.0737 13.1567,14.1897 13.1567,14.3847 L13.1567,14.4047 C13.1377,14.8327 13.1177,15.3597 12.9817,15.9057 C12.7867,16.6647 12.3967,17.2497 11.8317,17.6597 C11.3057,18.0307 10.6817,18.2247 9.9607,18.2247 L9.8827,18.2247 L9.7457,18.2247 Z M12.6887,10.3297 L11.4417,9.7657 C11.5577,9.5117 11.6167,9.2587 11.6167,8.9857 C11.6167,7.9527 10.7787,7.1147 9.7457,7.1147 C8.7127,7.1147 7.8747,7.9527 7.8747,8.9857 L6.5107,8.9857 C6.5107,7.2117 7.9527,5.7497 9.7457,5.7497 C11.5197,5.7497 12.9817,7.2117 12.9817,8.9857 C12.9817,9.4537 12.8847,9.9017 12.6887,10.3297 L12.6887,10.3297 Z M1.3457,19.9597 L7.3877,13.8977 L6.0617,12.5727 L-0.0003,18.6147 L-0.0003,19.9597 L1.3457,19.9597 Z M18.6347,-0.0003 L14.5997,4.0157 C15.0477,4.5027 15.5157,4.9517 15.7497,5.5547 L19.9787,1.3447 L19.9787,-0.0003 L18.6347,-0.0003 Z" id="Fill-1" fill="#1D1D1B" mask="url(#mask-2)"></path>
                    </g>
                </g>
            </g>
        </g>
    </g>
</svg>